…
    ##      0%     25%     50%     75%    100% 
    ## 0.00000 0.02956 0.06154 0.13070 0.42680

``` r
cancer_sample <- cancer_sample %>%  # reads: "make df 'cancer_sample" = the old df with the new variable (that is defined below) added
  mutate(concavity_category = case_when(concavity_mean < conc_quantiles[2] ~ "low", # define the levels of the new variable 'concavity_category' 
       conc_quantiles[2]  <=   concavity_mean  & concavity_mean < conc_quantiles[3] ~ "med-low",
        conc_quantiles[3]  <=   concavity_mean  & concavity_mean < conc_quantiles[4] ~"med-high",
       concavity_mean >= conc_quantiles[4] ~ "high")) # e.g., this 5th line reads: for the new variable we are making called 'concavity category', if the 'concavity_mean' for the sample is greater than or equal to the 4th number in the conc_quantiles objet (meaning it is within the 4th quartile of concavities), assign the new variable the level "high"

cancer_sample %>%
  select(ID, diagnosis, concavity_mean, concavity_category)  # subset the data set just to ensure new variable is printed in the output (for assignment)                                     
```

    ## # A tibble: 569 × 4
    ##          ID diagnosis concavity_mean concavity_category
    ##       <dbl> <chr>              <dbl> <chr>             
    ##  1   842302 M                 0.300  high              
    ##  2   842517 M                 0.0869 med-high          
    ##  3 84300903 M                 0.197  high              
    ##  4 84348301 M                 0.241  high              
    ##  5 84358402 M                 0.198  high              
    ##  6   843786 M                 0.158  high              
    ##  7   844359 M                 0.113  med-high          
    ##  8 84458202 M                 0.0937 med-high          
    ##  9   844981 M                 0.186  high              
    ## 10 84501001 M                 0.227  high              
    ## # ℹ 559 more rows
…
<!--------------------------- Start your work below --------------------------->

``` r
ncol(cancer_sample) 
```

    ## [1] 33

``` r
print(cancer_sample[1:8], n=10) # look at the first 8 variables in data set and print first 10 rows to check if tidy / for pedagogical / assignment purposes 
```

    ## # A tibble: 569 × 8
    ##          ID diagnosis radius_mean texture_mean perimeter_mean area_mean
    ##       <dbl> <chr>           <dbl>        <dbl>          <dbl>     <dbl>
    ##  1   842302 M                18.0         10.4          123.      1001 
    ##  2   842517 M                20.6         17.8          133.      1326 
    ##  3 84300903 M                19.7         21.2          130       1203 
    ##  4 84348301 M                11.4         20.4           77.6      386.
    ##  5 84358402 M                20.3         14.3          135.      1297 
    ##  6   843786 M                12.4         15.7           82.6      477.
    ##  7   844359 M                18.2         20.0          120.      1040 
    ##  8 84458202 M                13.7         20.8           90.2      578.
    ##  9   844981 M                13           21.8           87.5      520.
    ## 10 84501001 M                12.5         24.0           84.0      476.
    ## # ℹ 559 more rows
    ## # ℹ 2 more variables: smoothness_mean <dbl>, compactness_mean <dbl>
…
